-400 584
-16 -24 -8 8 -16 -32 840
48 -16 -24 880
-16 -24 -32 -8 -16 856
992
56 -24 32 -32 -40 -16 744
-24 8 -32 16 -16 -24 824
-24 -16 8 -24 -16 864
48 -32 -8 880
-40 -32 -8 24 -40 808
16 -24 8 -16 -8 -16 856
48 -24 904
56 -24 -24 864
-16 24 -24 -8 -16 -32 824
64 -32 -8 -16 -16 816
56 -24 32 -16 -8 -32 -40 728
-24 -16 24 -24 -24 -8 -16 -16 776
24 -16 -16 -16 -24 -16 -16 -24 776
48 -24 -16 -8 -16 -16 -16 -16 -8 752
-16 -32 8 -16 -8 -16 -40 800
