-200 -72 -96 -128 -200 -64 184
112 -176 -16 -88 -56 -104 -136 -112 -56 -40 16
-160 -184 -152 -144 -104 -120 -16 -32 16
56 -200 -160 -72 -32 -112 -40 264
96 -144 -112 -8 160 -160 -32 -96 120
-160 88 -80 80 -168 32 -120 208
456 -112 -48 -136 -128 -40 24
-56 -32 -24 856
16 -136 -104 -152 552
-64 -48 32 -32 88 -120 -152 168 -112 104
992
992
72 -192 -24 -16 136 -144 -168 184
992
8 -160 -192 -112 488
152 -8 -168 -152 -128 344
992
992
-8 -56 -192 712
-992
