-208 -112 -8 -240 -160 -48 56 -72 -24
-144 -64 496 -160 -40 -8 -8 16
-600 -56 -48 -40 -48 24 -8 -40 -32 24
-784 -120 72
-80 -320 32 -240 -152 128
-272 -376 328
-24 -176 136 -128 -440 48
-96 -216 -40 -8 -224 -48 72 -120 24 -16 48
-352 -144 -24 -272 -48 96 -8
-224 568 -8 -40 -24 -56 8 -8
-432 -112 -16 -232 -72 24 -8 -24 -8
-576 -48 -16 -48 -8 32 -8 8 -64 -112
48 -216 -88 -104 -48 -16 -40 -200 112 -32 8
-8 -568 -104 -8 272
-112 -152 224 -152 -304 8
992
416 -288 -136 -80 -8 -8 -8
-32 -512 112 -96 -144 -40 -8
-168 552 -120 -48 -24 -8 -8 8
-344 -48 56 -328 -80 96
