-104 -120 -160 -464 112
-424 -40 -120 -40 -136 120 -48 8
-448 272 -152 -8 -48 24
-496 -248 -152 72
-528 -264 -64 -88 16
-672 -184 -80 32
-8 -48 -8 48 -736 -104
-360 -232 -40 336
-952 -8 16
-224 584 -152 8
-392 -376 136 -8 48
-224 -16 168 -392 -56 -96
168 -816
384 -496 -56 32
-576 -24 -24 -112 -200 16
-32 -8 880 -48
-472 -296 -48 -16 -24 96
752 -24 -96 -80 -8
-704 -8 264
968 -16
-256 -24 24 -496 -88 -64
-632 -128 -120 24 -56
-16 -144 728 -80
-712 136 -72 48
-8 -720 -136 104
-336 -96 -352 -24 -40 -40 56
-504 -384 -8 -72
-176 -176 -32 -96 -416 -24 24
88 -368 -360 -128 16
-320 -136 -224 -8 -32 8 -120 -88
704 -176 -48 -40
-312 -120 -304 80 -88 48
-200 -240 16 -296 -120 80
-344 -40 360 -32 -144 -32
-168 -96 -40 56 -392 -160 32
-352 -240 -104 -40 -112 8 -88
-592 176 -192 8
-56 240 -40 -368 -240 -8
-168 624 -152 -8 8
-32 312 -112 -264 -16 48 -88 -32 24
